…
``` r
names_uk %>%
  group_by(longitude, latitude) %>%
  filter(n() > 1)
```

    ## # A tibble: 1,489 x 16
    ## # Groups:   longitude, latitude [574]
    ##    gaz_id scar_common_id place_name place_name_tran… longitude latitude altitude
    ##     <dbl>          <dbl> <chr>      <chr>                <dbl>    <dbl>    <dbl>
    ##  1 100006             20 Abovedada… Abovedada, punta     -62.0    -64.6       NA
    ##  2 135174             30 Access Po… Access Point         -63.8    -64.8       NA
    ##  3 107435             33 Achæan Ra… Achaean Range        -63.6    -64.5       NA
    ##  4 107436             37 Achilles … Achilles Heel        -63.6    -64.5       NA
    ##  5 107442             49 Acuña Isl… Acuna Island         -44.6    -60.8       NA
    ##  6 107443             50 Acuña Roc… Acuna Rocks          -57.9    -63.3       NA
    ##  7 100014             51 Acuña, ro… Acuna, roca          -57.9    -63.3       NA
    ##  8 121591             72 Cape Adare Cape Adare           170.     -71.3       NA
    ##  9 107446             75 Adelaide   Adelaide             -68.9    -67.8       NA
    ## 10 116745             87 Admiralty… Admiralty Bay (…     -58.4    -62.1       NA
    ## # … with 1,479 more rows, and 9 more variables: feature_type_name <fct>,
    ## #   date_named <dttm>, narrative <chr>, named_for <chr>, origin <chr>,
    ## #   relic <lgl>, gazetteer <chr>, lat_2 <dbl>, lon_2 <dbl>
…
Now that I’m down to 7494 locations, time to check again how many have
identical coordinates and how many have identical place names.

``` r
# A list of 7490 distinct locations
as_tibble(ant_locs) %>%
  group_by(lat_2, lon_2) %>%
  distinct()
```

    ## # A tibble: 7,490 x 17
    ## # Groups:   lat_2, lon_2 [7,490]
    ##    gaz_id scar_common_id place place_name_tran… altitude feature_type_na…
    ##     <dbl>          <dbl> <chr> <chr>               <dbl> <fct>           
    ##  1 131337          16766 Scot… Scott Island Ba…       NA Bank            
    ##  2 126072           5858 Hagg… Haggits Pillar         65 Pillar          
    ##  3 131342          12910 Scot… Scott Seamounts        NA <NA>            
    ##  4 126979           6950 Isel… Iselin Bank            NA Bank            
    ##  5 117253           1883 Broc… Brockton /USA/         NA <NA>            
    ##  6 126980           6951 Isel… Iselin Seamount        NA <NA>            
    ##  7 127563           7766 Kosc… Kosco Glacier          NA Glacier         
    ##  8 129682          10656 Oppe… Oppegaard Spur         NA Spur            
    ##  9 130955          12378 Ross… Ross Bank              NA Bank            
    ## 10 112255           2865 Colu… Columbus High          NA Undersea ridge  
    ## # … with 7,480 more rows, and 11 more variables: date_named <dttm>,
    ## #   narrative <chr>, named_for <chr>, origin <chr>, relic <lgl>,
    ## #   gazetteer <chr>, lat_2 <dbl>, lon_2 <dbl>, geometry <POINT [m]>,
    ## #   buffer <lgl>, country <chr>
…
``` r
# Check for duplicate names - gives us 78
as_tibble(ant_locs) %>%
  group_by(place) %>%
  filter(n() > 1) %>%
  arrange(place)
```

    ## # A tibble: 78 x 17
    ## # Groups:   place [39]
    ##    gaz_id scar_common_id place place_name_tran… altitude feature_type_na…
    ##     <dbl>          <dbl> <chr> <chr>               <dbl> <fct>           
    ##  1 107508            336 Anch… Anchorage Island       NA Anchorage       
    ##  2    845            337 Anch… Anchorage Island       53 Island          
    ##  3 107615            715 Azim… Azimuth Hill           NA Hill            
    ##  4    675            716 Azim… Azimuth Hill           20 Hill            
    ##  5 107820           1396 Blac… Black Island           NA Island          
    ##  6 122575           1397 Blac… Black Island           NA Island          
    ##  7 107846           9998 Bluf… Bluff Island           NA Bluff           
    ##  8 122651           1487 Bluf… Bluff Island           NA Bluff           
    ##  9 107880           1639 Bota… Botany Bay             NA Bay             
    ## 10 122764           1640 Bota… Botany Bay             NA Bay             
    ## # … with 68 more rows, and 11 more variables: date_named <dttm>,
    ## #   narrative <chr>, named_for <chr>, origin <chr>, relic <lgl>,
    ## #   gazetteer <chr>, lat_2 <dbl>, lon_2 <dbl>, geometry <POINT [m]>,
    ## #   buffer <lgl>, country <chr>
…
