…
    ## # A tibble: 1 x 1
    ##       n
    ##   <int>
    ## 1    75

``` r
port_networks$all %>%
  activate(nodes) %>%
  as_tibble() %>%
  dplyr::select(cluster) %>%
  group_by(cluster) %>%
  count()
```

    ## # A tibble: 75 x 2
    ## # Groups:   cluster [75]
    ##    cluster        n
    ##    <membrshp> <int>
    ##  1  1           226
    ##  2  2           137
    ##  3  3           108
    ##  4  4            92
    ##  5  5            83
    ##  6  6            49
    ##  7  7            49
    ##  8  8            47
    ##  9  9            61
    ## 10 10            59
    ## # … with 65 more rows
…
    ## # A tibble: 1 x 1
    ##       n
    ##   <int>
    ## 1    50

``` r
port_networks$tourism %>%
  activate(nodes) %>%
  as_tibble() %>%
  dplyr::select(cluster) %>%
  group_by(cluster) %>%
  count()
```

    ## # A tibble: 50 x 2
    ## # Groups:   cluster [50]
    ##    cluster        n
    ##    <membrshp> <int>
    ##  1  1           162
    ##  2  2            97
    ##  3  3            86
    ##  4  4            65
    ##  5  5            62
    ##  6  6            61
    ##  7  7            45
    ##  8  8            42
    ##  9  9            39
    ## 10 10            33
    ## # … with 40 more rows
…
    ## # A tibble: 1 x 1
    ##       n
    ##   <int>
    ## 1    39

``` r
port_networks$research %>%
  activate(nodes) %>%
  as_tibble() %>%
  dplyr::select(cluster) %>%
  group_by(cluster) %>%
  count()
```

    ## # A tibble: 39 x 2
    ## # Groups:   cluster [39]
    ##    cluster        n
    ##    <membrshp> <int>
    ##  1  1            56
    ##  2  2            50
    ##  3  3            35
    ##  4  4            25
    ##  5  5            20
    ##  6  6            23
    ##  7  7            17
    ##  8  8            13
    ##  9  9            10
    ## 10 10            14
    ## # … with 29 more rows
…
    ## # A tibble: 1 x 1
    ##       n
    ##   <int>
    ## 1    75

``` r
port_networks$supply %>%
  activate(nodes) %>%
  as_tibble() %>%
  dplyr::select(cluster) %>%
  group_by(cluster) %>%
  count()
```

    ## # A tibble: 75 x 2
    ## # Groups:   cluster [75]
    ##    cluster        n
    ##    <membrshp> <int>
    ##  1  1            59
    ##  2  2            48
    ##  3  3            38
    ##  4  4            42
    ##  5  5            35
    ##  6  6            41
    ##  7  7            38
    ##  8  8            24
    ##  9  9            30
    ## 10 10            27
    ## # … with 65 more rows
…
    ## # A tibble: 1 x 1
    ##       n
    ##   <int>
    ## 1    21

``` r
port_networks$other %>%
  activate(nodes) %>%
  as_tibble() %>%
  dplyr::select(cluster) %>%
  group_by(cluster) %>%
  count()
```

    ## # A tibble: 21 x 2
    ## # Groups:   cluster [21]
    ##    cluster        n
    ##    <membrshp> <int>
    ##  1  1            14
    ##  2  2            10
    ##  3  3             9
    ##  4  4             7
    ##  5  5             8
    ##  6  6             8
    ##  7  7             6
    ##  8  8             8
    ##  9  9             7
    ## 10 10             6
    ## # … with 11 more rows
…
#### Summary information about gateway ports by country.

Relevant to the consideration of where biosecurity measures could be
implemented to effectively reduce transfer of non-native species.

``` r
#number of gateway ports per country
gateway_nodes %>%
  group_by(country) %>%
  count() %>% 
  arrange(desc(n))
```

    ## # A tibble: 23 x 2
    ## # Groups:   country [23]
    ##    country              n
    ##    <chr>            <int>
    ##  1 Argentina            8
    ##  2 Chile                7
    ##  3 Falkland Islands     5
    ##  4 China                4
    ##  5 New Zealand          4
    ##  6 U.K.                 4
    ##  7 Australia            3
    ##  8 Uruguay              3
    ##  9 Brazil               2
    ## 10 Colombia             2
    ## # … with 13 more rows
…
    ## # A tibble: 1 x 1
    ##   gateway_cities_pcent
    ##                  <dbl>
    ## 1                 96.9

``` r
gateway_nodes %>%
  dplyr::select(place, country, strength_out, pcent) %>%
  mutate(pcent = sprintf("%0.2f", pcent))
```

    ## # A tibble: 58 x 4
    ##    place           country          strength_out pcent
    ##    <chr>           <chr>                   <dbl> <chr>
    ##  1 Ushuaia         Argentina                 718 46.84
    ##  2 Stanley Harbour Falkland Islands          212 13.83
    ##  3 Punta Arenas    Chile                     163 10.63
    ##  4 Puerto Williams Chile                     124 8.09 
    ##  5 Cape Town       South Africa               41 2.67 
    ##  6 Port William    Falkland Islands           40 2.61 
    ##  7 Montevideo      Uruguay                    32 2.09 
    ##  8 Hobart          Australia                  26 1.70 
    ##  9 Lyttelton       New Zealand                17 1.11 
    ## 10 Berkeley Sound  Falkland Islands           16 1.04 
    ## # … with 48 more rows
…
gateway_nodes_fishing %>%
  dplyr::select(place, country, strength_out, pcent) %>%
  mutate(pcent = sprintf("%0.2f", pcent))
```

    ## # A tibble: 22 x 4
    ##    place                 country          strength_out pcent
    ##    <chr>                 <chr>                   <dbl> <chr>
    ##  1 Punta Arenas          Chile                      21 25.30
    ##  2 Cape Town             South Africa               13 15.66
    ##  3 Montevideo            Uruguay                     7 8.43 
    ##  4 Las Palmas            Canary Islands              4 4.82 
    ##  5 Port William          Falkland Islands            4 4.82 
    ##  6 Stanley Harbour       Falkland Islands            4 4.82 
    ##  7 Callao                Peru                        4 4.82 
    ##  8 Montevideo Alpha Zone Uruguay                     4 4.82 
    ##  9 Puerto Williams       Chile                       3 3.61 
    ## 10 Berkeley Sound        Falkland Islands            3 3.61 
    ## # … with 12 more rows
…
gateway_nodes_research %>%
  dplyr::select(place, country, strength_out, pcent) %>%
  mutate(pcent = sprintf("%0.2f", pcent))
```

    ## # A tibble: 22 x 4
    ##    place           country          strength_out pcent
    ##    <chr>           <chr>                   <dbl> <chr>
    ##  1 Punta Arenas    Chile                     111 46.25
    ##  2 Hobart          Australia                  24 10.00
    ##  3 Cape Town       South Africa               23 9.58 
    ##  4 Ushuaia         Argentina                  17 7.08 
    ##  5 Mare Harbour    Falkland Islands           15 6.25 
    ##  6 Lyttelton       New Zealand                11 4.58 
    ##  7 Puerto Williams Chile                       9 3.75 
    ##  8 Stanley Harbour Falkland Islands            9 3.75 
    ##  9 Sydney          Australia                   3 1.25 
    ## 10 Fremantle       Australia                   3 1.25 
    ## # … with 12 more rows
…
gateway_nodes_supply %>%
  dplyr::select(place, country, strength_out, pcent) %>%
  mutate(pcent = sprintf("%0.2f", pcent))
```

    ## # A tibble: 29 x 4
    ##    place                 country          strength_out pcent
    ##    <chr>                 <chr>                   <dbl> <chr>
    ##  1 Port William          Falkland Islands           26 18.71
    ##  2 Punta Arenas          Chile                      14 10.07
    ##  3 Berkeley Sound        Falkland Islands           12 8.63 
    ##  4 Montevideo            Uruguay                    12 8.63 
    ##  5 Montevideo Alpha Zone Uruguay                    11 7.91 
    ##  6 Buenos Aires          Argentina                   8 5.76 
    ##  7 Ushuaia               Argentina                   7 5.04 
    ##  8 Lyttelton             New Zealand                 6 4.32 
    ##  9 Puerto Williams       Chile                       6 4.32 
    ## 10 Bintulu               Malaysia                    5 3.60 
    ## # … with 19 more rows
…
Are the top locations the same for all activity types?

Fishing

``` r
port_networks$fishing %>%
  activate(nodes) %>%
  filter(realm == "Southern Ocean") %>%
  arrange(desc(n_voyages)) %>%
  as_tibble()
```

    ## # A tibble: 74 x 27
    ##    place country area  latitude longitude feature ecoregion province realm
    ##    <chr> <chr>   <chr>    <dbl>     <dbl> <chr>   <chr>     <chr>    <chr>
    ##  1 Dovi… Southe… Anta…    -62.4     -59.7 Rock    South Sh… Scotia … Sout…
    ##  2 Vald… Southe… Anta…    -64.4     -61.4 Point   Antarcti… Scotia … Sout…
    ##  3 Roge… Southe… Anta…    -64.3     -61.2 Rock    Antarcti… Scotia … Sout…
    ##  4 Cape… Southe… Anta…    -64.4     -61.6 Cape    Antarcti… Scotia … Sout…
    ##  5 Bran… Southe… Anta…    -63       -59   Strait  Antarcti… Scotia … Sout…
    ##  6 Hugh… Southe… Anta…    -64.2     -61.2 Bay     Antarcti… Scotia … Sout…
    ##  7 Karl… Southe… Anta…    -60.4     -46   Rock    South Or… Scotia … Sout…
    ##  8 Neum… Southe… Anta…    -63.8     -60.4 Cape    Antarcti… Scotia … Sout…
    ##  9 Maxw… Southe… Anta…    -62.2     -58.9 Bay     South Sh… Scotia … Sout…
    ## 10 Berr… Southe… Anta…    -60.7     -45.6 Head    South Or… Scotia … Sout…
    ## # … with 64 more rows, and 18 more variables: from_province <chr>,
    ## #   to_province <chr>, n_voyages <dbl>, n_ships <dbl>, n_trips <dbl>,
    ## #   total_time <dbl>, median_time <dbl>, mean_time <dbl>, n_time <dbl>,
    ## #   betweenness_centrality <dbl>, closeness_centrality <dbl>,
    ## #   strength_out <dbl>, strength_in <dbl>, strength_total <dbl>,
    ## #   centrality_eigen <dbl>, centrality_hub <dbl>, centrality_pagerank <dbl>,
    ## #   cluster <dbl>
…
Tourism

``` r
port_networks$tourism %>%
  activate(nodes) %>%
  filter(realm == "Southern Ocean") %>%
  arrange(desc(n_voyages)) %>%
  as_tibble()
```

    ## # A tibble: 169 x 27
    ##    place country area  latitude longitude feature ecoregion province realm
    ##    <chr> <chr>   <chr>    <dbl>     <dbl> <chr>   <chr>     <chr>    <chr>
    ##  1 Kerr… Southe… Anta…    -64.7     -62.6 Point   Antarcti… Scotia … Sout…
    ##  2 Glor… Southe… Anta…    -64.8     -63.5 Head    Antarcti… Scotia … Sout…
    ##  3 Andv… Southe… Anta…    -64.8     -62.6 Bay     Antarcti… Scotia … Sout…
    ##  4 Coug… Southe… Anta…    -64.9     -62.9 Penins… Antarcti… Scotia … Sout…
    ##  5 Gira… Southe… Anta…    -62.6     -59.9 Island  South Sh… Scotia … Sout…
    ##  6 Maxw… Southe… Anta…    -62.2     -58.9 Bay     South Sh… Scotia … Sout…
    ##  7 Buen… Southe… Anta…    -63.0     -60.6 Waterc… South Sh… Scotia … Sout…
    ##  8 Söge… Southe… Anta…    -65.1     -64.0 Island  Antarcti… Scotia … Sout…
    ##  9 Duth… Southe… Anta…    -64.8     -62.8 Point   Antarcti… Scotia … Sout…
    ## 10 Ice … Southe… Anta…    -64.7     -63.0 Headla… Antarcti… Scotia … Sout…
    ## # … with 159 more rows, and 18 more variables: from_province <chr>,
    ## #   to_province <chr>, n_voyages <dbl>, n_ships <dbl>, n_trips <dbl>,
    ## #   total_time <dbl>, median_time <dbl>, mean_time <dbl>, n_time <dbl>,
    ## #   betweenness_centrality <dbl>, closeness_centrality <dbl>,
    ## #   strength_out <dbl>, strength_in <dbl>, strength_total <dbl>,
    ## #   centrality_eigen <dbl>, centrality_hub <dbl>, centrality_pagerank <dbl>,
    ## #   cluster <dbl>
…
Research

``` r
port_networks$research %>%
  activate(nodes) %>%
  filter(realm == "Southern Ocean") %>%
  arrange(desc(n_voyages)) %>%
  as_tibble()
```

    ## # A tibble: 191 x 27
    ##    place country area  latitude longitude feature ecoregion province realm
    ##    <chr> <chr>   <chr>    <dbl>     <dbl> <chr>   <chr>     <chr>    <chr>
    ##  1 Maxw… Southe… Anta…    -62.2     -58.9 Bay     South Sh… Scotia … Sout…
    ##  2 Brit… Southe… Anta…    -62.1     -58.4 Point   South Sh… Scotia … Sout…
    ##  3 Poin… Southe… Anta…    -62.2     -58.5 Point   South Sh… Scotia … Sout…
    ##  4 Kris… Southe… Anta…    -64.8     -64.1 Cove    Antarcti… Scotia … Sout…
    ##  5 Buen… Southe… Anta…    -63.0     -60.6 Waterc… South Sh… Scotia … Sout…
    ##  6 Sout… Southe… Anta…    -62.7     -60.5 Bay     South Sh… Scotia … Sout…
    ##  7 Ches… Southe… Anta…    -67.6     -68.1 Island  Antarcti… Scotia … Sout…
    ##  8 Pig … Southe… Anta…    -62.3     -58.8 Rock    South Sh… Scotia … Sout…
    ##  9 Dovi… Southe… Anta…    -62.4     -59.7 Rock    South Sh… Scotia … Sout…
    ## 10 Duth… Southe… Anta…    -64.8     -62.8 Point   Antarcti… Scotia … Sout…
    ## # … with 181 more rows, and 18 more variables: from_province <chr>,
    ## #   to_province <chr>, n_voyages <dbl>, n_ships <dbl>, n_trips <dbl>,
    ## #   total_time <dbl>, median_time <dbl>, mean_time <dbl>, n_time <dbl>,
    ## #   betweenness_centrality <dbl>, closeness_centrality <dbl>,
    ## #   strength_out <dbl>, strength_in <dbl>, strength_total <dbl>,
    ## #   centrality_eigen <dbl>, centrality_hub <dbl>, centrality_pagerank <dbl>,
    ## #   cluster <dbl>
…
Supply

``` r
port_networks$supply %>%
  activate(nodes) %>%
  filter(realm == "Southern Ocean") %>%
  arrange(desc(n_voyages)) %>%
  as_tibble()
```

    ## # A tibble: 65 x 27
    ##    place country area  latitude longitude feature ecoregion province realm
    ##    <chr> <chr>   <chr>    <dbl>     <dbl> <chr>   <chr>     <chr>    <chr>
    ##  1 Dovi… Southe… Anta…    -62.4     -59.7 Rock    South Sh… Scotia … Sout…
    ##  2 Pott… Southe… Anta…    -62.2     -58.7 Cove    South Sh… Scotia … Sout…
    ##  3 Maxw… Southe… Anta…    -62.2     -58.9 Bay     South Sh… Scotia … Sout…
    ##  4 Buen… Southe… Anta…    -63.0     -60.6 Waterc… South Sh… Scotia … Sout…
    ##  5 Sout… Southe… Anta…    -62.7     -60.5 Bay     South Sh… Scotia … Sout…
    ##  6 Berr… Southe… Anta…    -60.7     -45.6 Head    South Or… Scotia … Sout…
    ##  7 Mari… Southe… Anta…    -74.7     164.  Station Ross Sea  Contine… Sout…
    ##  8 Brit… Southe… Anta…    -62.1     -58.4 Point   South Sh… Scotia … Sout…
    ##  9 Gira… Southe… Anta…    -62.6     -59.9 Island  South Sh… Scotia … Sout…
    ## 10 Walk… Southe… Anta…    -62.6     -60.7 Bay     South Sh… Scotia … Sout…
    ## # … with 55 more rows, and 18 more variables: from_province <chr>,
    ## #   to_province <chr>, n_voyages <dbl>, n_ships <dbl>, n_trips <dbl>,
    ## #   total_time <dbl>, median_time <dbl>, mean_time <dbl>, n_time <dbl>,
    ## #   betweenness_centrality <dbl>, closeness_centrality <dbl>,
    ## #   strength_out <dbl>, strength_in <dbl>, strength_total <dbl>,
    ## #   centrality_eigen <dbl>, centrality_hub <dbl>, centrality_pagerank <dbl>,
    ## #   cluster <dbl>
…
Other

``` r
port_networks$other %>%
  activate(nodes) %>%
  filter(realm == "Southern Ocean") %>%
  arrange(desc(n_voyages)) %>%
  as_tibble()
```

    ## # A tibble: 21 x 27
    ##    place country area  latitude longitude feature ecoregion province realm
    ##    <chr> <chr>   <chr>    <dbl>     <dbl> <chr>   <chr>     <chr>    <chr>
    ##  1 Dovi… Southe… Anta…    -62.4     -59.7 Rock    South Sh… Scotia … Sout…
    ##  2 Hard… Southe… Anta…    -62.6     -59.6 Head    South Sh… Scotia … Sout…
    ##  3 Smol… Southe… Anta…    -62.8     -60.4 <NA>    South Sh… Scotia … Sout…
    ##  4 Dela… Southe… Anta…    -64.6     -62.2 Island  Antarcti… Scotia … Sout…
    ##  5 Robe… Southe… Anta…    -62.4     -59.4 Point   South Sh… Scotia … Sout…
    ##  6 Sout… Southe… Anta…    -62.7     -60.5 Bay     South Sh… Scotia … Sout…
    ##  7 Herz… Southe… Anta…    -77.8     -35.2 Bay     Weddell … Contine… Sout…
    ##  8 Andv… Southe… Anta…    -64.8     -62.6 Bay     Antarcti… Scotia … Sout…
    ##  9 Anta… Southe… Anta…    -63.4     -56.6 Sound   Antarcti… Scotia … Sout…
    ## 10 Cont… Southe… Anta…    -63.4     -57.0 Point   Antarcti… Scotia … Sout…
    ## # … with 11 more rows, and 18 more variables: from_province <chr>,
    ## #   to_province <chr>, n_voyages <dbl>, n_ships <dbl>, n_trips <dbl>,
    ## #   total_time <dbl>, median_time <dbl>, mean_time <dbl>, n_time <dbl>,
    ## #   betweenness_centrality <dbl>, closeness_centrality <dbl>,
    ## #   strength_out <dbl>, strength_in <dbl>, strength_total <dbl>,
    ## #   centrality_eigen <dbl>, centrality_hub <dbl>, centrality_pagerank <dbl>,
    ## #   cluster <dbl>
…
