…
``` r
ecoregion_networks$all %>%
  activate(nodes) %>%
  arrange(desc(total_time)) %>%
  as_tibble() %>%
  group_by(ecoregion) %>%
  summarise(total_time = sum(total_time, na.rm = TRUE)) %>%
  arrange(desc(total_time))
```

    ## # A tibble: 181 × 2
    ##    ecoregion                             total_time
    ##    <chr>                                      <dbl>
    ##  1 Channels and Fjords of Southern Chile 1377201300
    ##  2 Rio de la Plata                       1162411380
    ##  3 East China Sea                         941725140
    ##  4 Antarctic Peninsula                    867381660
    ##  5 North Sea                              738240000
    ##  6 South Shetland Islands                 644148900
    ##  7 Namaqua                                528610620
    ##  8 Central Kuroshio Current               491371200
    ##  9 Malvinas/Falklands                     454577940
    ## 10 Sea of Japan/East Sea                  415797000
    ## # … with 171 more rows
